[
  {
    "x": 10,
    "y": 10,
    "propertyName": "Inginerie",
    "buyoutPrice": 100,
    "color": "Lavender"
  },
  {
    "x": 112,
    "y": 10,
    "propertyName": "Litere",
    "buyoutPrice": 200,
    "color": "Red"
  },
  {
    "x": 214,
    "y": 10,
    "propertyName": "Tractoare",
    "buyoutPrice": 170,
    "color": "Beige"
  },
  {
    "x": 316,
    "y": 10,
    "propertyName": "Mucus",
    "buyoutPrice": 400,
    "color": "ForestGreen"
  },
  {
    "x": 316,
    "y": 175,
    "propertyName": "Mucus",
    "buyoutPrice": 400,
    "color": "Red"
  }
]