[
  {
    "x": 10,
    "y": 10,
    "propertyName": "START",
    "buyoutPrice": 0,
    "color": "Lavender"
  },
  {
    "x": 82,
    "y": 10,
    "propertyName": "Proprietatea 1",
    "buyoutPrice": -100,
    "color": "Lavender"
  },
  {
    "x": 154,
    "y": 10,
    "propertyName": "Proprietatea 2",
    "buyoutPrice": 100,
    "color": "Lavender"
  },
  {
    "x": 226,
    "y": 10,
    "propertyName": "Proprietatea 3",
    "buyoutPrice": -100,
    "color": "Lavender"
  },
  {
    "x": 298,
    "y": 10,
    "propertyName": "Proprietatea 4",
    "buyoutPrice": 100,
    "color": "Lavender"
  },
  {
    "x": 370,
    "y": 10,
    "propertyName": "Proprietatea 5",
    "buyoutPrice": -300,
    "color": "Lavender"
  },
  {
    "x": 442,
    "y": 10,
    "propertyName": "Proprietatea 6",
    "buyoutPrice": 100,
    "color": "Lavender"
  },
  {
    "x": 514,
    "y": 10,
    "propertyName": "Proprietatea 7",
    "buyoutPrice": -100,
    "color": "Lavender"
  },
  {
    "x": 586,
    "y": 10,
    "propertyName": "Proprietatea 8",
    "buyoutPrice": 100,
    "color": "Lavender"
  },
  {
    "x": 658,
    "y": 10,
    "propertyName": "Proprietatea 9",
    "buyoutPrice": -100,
    "color": "Lavender"
  },
  {
    "x": 730,
    "y": 10,
    "propertyName": "Proprietatea 10",
    "buyoutPrice": -100,
    "color": "LightGreen"
  },
  {
    "x": 730,
    "y": 82,
    "propertyName": "Proprietatea 11",
    "buyoutPrice": 100,
    "color": "LightGreen"
  },
  {
    "x": 730,
    "y": 154,
    "propertyName": "Proprietatea 12",
    "buyoutPrice": 100,
    "color": "LightGreen"
  },
  {
    "x": 730,
    "y": 226,
    "propertyName": "Proprietatea 13",
    "buyoutPrice": -100,
    "color": "LightGreen"
  },
  {
    "x": 730,
    "y": 298,
    "propertyName": "Proprietatea 14",
    "buyoutPrice": 100,
    "color": "LightGreen"
  },
  {
    "x": 730,
    "y": 370,
    "propertyName": "Proprietatea 15",
    "buyoutPrice": 100,
    "color": "LightGreen"
  },
  {
    "x": 730,
    "y": 442,
    "propertyName": "Proprietatea 16",
    "buyoutPrice": 100,
    "color": "LightGreen"
  },
  {
    "x": 730,
    "y": 514,
    "propertyName": "Proprietatea 17",
    "buyoutPrice": 100,
    "color": "LightGreen"
  },
  {
    "x": 730,
    "y": 586,
    "propertyName": "Proprietatea 18",
    "buyoutPrice": 100,
    "color": "LightGreen"
  },
  {
    "x": 730,
    "y": 658,
    "propertyName": "Proprietatea 19",
    "buyoutPrice": -100,
    "color": "LightGreen"
  },
  {
    "x": 730,
    "y": 730,
    "propertyName": "Proprietatea 20",
    "buyoutPrice": 100,
    "color": "LightSalmon"
  },
  {
    "x": 658,
    "y": 730,
    "propertyName": "Proprietatea 21",
    "buyoutPrice": 100,
    "color": "LightSalmon"
  },
  {
    "x": 586,
    "y": 730,
    "propertyName": "Proprietatea 22",
    "buyoutPrice": 100,
    "color": "LightSalmon"
  },
  {
    "x": 514,
    "y": 730,
    "propertyName": "Proprietatea 23",
    "buyoutPrice": 100,
    "color": "LightSalmon"
  },
  {
    "x": 442,
    "y": 730,
    "propertyName": "Proprietatea 24",
    "buyoutPrice": -100,
    "color": "LightSalmon"
  },
  {
    "x": 370,
    "y": 730,
    "propertyName": "Proprietatea 25",
    "buyoutPrice": -100,
    "color": "LightSalmon"
  },
  {
    "x": 298,
    "y": 730,
    "propertyName": "Proprietatea 26",
    "buyoutPrice": 100,
    "color": "LightSalmon"
  },
  {
    "x": 226,
    "y": 730,
    "propertyName": "Proprietatea 27",
    "buyoutPrice": 100,
    "color": "LightSalmon"
  },
  {
    "x": 154,
    "y": 730,
    "propertyName": "Proprietatea 28",
    "buyoutPrice": 100,
    "color": "LightSalmon"
  },
  {
    "x": 82,
    "y": 730,
    "propertyName": "Proprietatea 29",
    "buyoutPrice": 100,
    "color": "LightSalmon"
  },
  {
    "x": 10,
    "y": 730,
    "propertyName": "Proprietatea 30",
    "buyoutPrice": 100,
    "color": "AliceBlue"
  },
  {
    "x": 10,
    "y": 658,
    "propertyName": "Proprietatea 31",
    "buyoutPrice": 100,
    "color": "AliceBlue"
  },
  {
    "x": 10,
    "y": 586,
    "propertyName": "Proprietatea 32",
    "buyoutPrice": 100,
    "color": "AliceBlue"
  },
  {
    "x": 10,
    "y": 514,
    "propertyName": "Proprietatea 33",
    "buyoutPrice": 100,
    "color": "AliceBlue"
  },
  {
    "x": 10,
    "y": 442,
    "propertyName": "Proprietatea 34",
    "buyoutPrice": 100,
    "color": "AliceBlue"
  },
  {
    "x": 10,
    "y": 370,
    "propertyName": "Proprietatea 35",
    "buyoutPrice": 100,
    "color": "AliceBlue"
  },
  {
    "x": 10,
    "y": 298,
    "propertyName": "Proprietatea 36",
    "buyoutPrice": 100,
    "color": "AliceBlue"
  },
  {
    "x": 10,
    "y": 226,
    "propertyName": "Proprietatea 37",
    "buyoutPrice": 100,
    "color": "AliceBlue"
  },
  {
    "x": 10,
    "y": 154,
    "propertyName": "Proprietatea 38",
    "buyoutPrice": 100,
    "color": "AliceBlue"
  },
  {
    "x": 10,
    "y": 82,
    "propertyName": "Proprietatea 39",
    "buyoutPrice": 100,
    "color": "AliceBlue"
  }
]